%YAML 1.1
%TAG !u! tag:unity3d.com,2011:
--- !u!1 &115003502879929475
GameObject:
  m_ObjectHideFlags: 0
  m_CorrespondingSourceObject: {fileID: 0}
  m_PrefabInstance: {fileID: 0}
  m_PrefabAsset: {fileID: 0}
  serializedVersion: 6
  m_Component:
  - component: {fileID: 1457954195887949354}
  - component: {fileID: 2158374468235810933}
  - component: {fileID: 7352446758508165602}
  m_Layer: 0
  m_Name: Friendly Block
  m_TagString: Untagged
  m_Icon: {fileID: 0}
  m_NavMeshLayer: 0
  m_StaticEditorFlags: 0
  m_IsActive: 1
--- !u!4 &1457954195887949354
Transform:
  m_ObjectHideFlags: 0
  m_CorrespondingSourceObject: {fileID: 0}
  m_PrefabInstance: {fileID: 0}
  m_PrefabAsset: {fileID: 0}
  m_GameObject: {fileID: 115003502879929475}
  m_LocalRotation: {x: 0, y: 0, z: 0, w: 1}
  m_LocalPosition: {x: 20, y: 0, z: 10}
  m_LocalScale: {x: 1, y: 1, z: 1}
  m_Children:
  - {fileID: 4919834173638434365}
  m_Father: {fileID: 0}
  m_RootOrder: 0
  m_LocalEulerAnglesHint: {x: 0, y: 0, z: 0}
--- !u!114 &2158374468235810933
MonoBehaviour:
  m_ObjectHideFlags: 0
  m_CorrespondingSourceObject: {fileID: 0}
  m_PrefabInstance: {fileID: 0}
  m_PrefabAsset: {fileID: 0}
  m_GameObject: {fileID: 115003502879929475}
  m_Enabled: 1
  m_EditorHideFlags: 0
  m_Script: {fileID: 11500000, guid: b3d17e8ffa2271c43a3d15798dd77d13, type: 3}
  m_Name: 
  m_EditorClassIdentifier: 
  towerPrefab: {fileID: 4622886789708155266, guid: 8f5ef20f57667bd4aa008271bc4f617e,
    type: 3}
  isPlaceable: 1
--- !u!65 &7352446758508165602
BoxCollider:
  m_ObjectHideFlags: 0
  m_CorrespondingSourceObject: {fileID: 0}
  m_PrefabInstance: {fileID: 0}
  m_PrefabAsset: {fileID: 0}
  m_GameObject: {fileID: 115003502879929475}
  m_Material: {fileID: 0}
  m_IsTrigger: 0
  m_Enabled: 1
  serializedVersion: 2
  m_Size: {x: 10, y: 10, z: 10}
  m_Center: {x: 0, y: -5, z: 0}
--- !u!1001 &4920531451807067075
PrefabInstance:
  m_ObjectHideFlags: 0
  serializedVersion: 2
  m_Modification:
    m_TransformParent: {fileID: 1457954195887949354}
    m_Modifications:
    - target: {fileID: 1457945536329988, guid: f27a4597efbf3694b95687e7aeef7fcc, type: 3}
      propertyPath: m_Name
      value: Block_Friendly
      objectReference: {fileID: 0}
    - target: {fileID: 4501762900964862, guid: f27a4597efbf3694b95687e7aeef7fcc, type: 3}
      propertyPath: m_LocalPosition.x
      value: 0
      objectReference: {fileID: 0}
    - target: {fileID: 4501762900964862, guid: f27a4597efbf3694b95687e7aeef7fcc, type: 3}
      propertyPath: m_LocalPosition.y
      value: -10
      objectReference: {fileID: 0}
    - target: {fileID: 4501762900964862, guid: f27a4597efbf3694b95687e7aeef7fcc, type: 3}
      propertyPath: m_LocalPosition.z
      value: 0
      objectReference: {fileID: 0}
    - target: {fileID: 4501762900964862, guid: f27a4597efbf3694b95687e7aeef7fcc, type: 3}
      propertyPath: m_LocalRotation.x
      value: 0
      objectReference: {fileID: 0}
    - target: {fileID: 4501762900964862, guid: f27a4597efbf3694b95687e7aeef7fcc, type: 3}
      propertyPath: m_LocalRotation.y
      value: 0
      objectReference: {fileID: 0}
    - target: {fileID: 4501762900964862, guid: f27a4597efbf3694b95687e7aeef7fcc, type: 3}
      propertyPath: m_LocalRotation.z
      value: 0
      objectReference: {fileID: 0}
    - target: {fileID: 4501762900964862, guid: f27a4597efbf3694b95687e7aeef7fcc, type: 3}
      propertyPath: m_LocalRotation.w
      value: 1
      objectReference: {fileID: 0}
    - target: {fileID: 4501762900964862, guid: f27a4597efbf3694b95687e7aeef7fcc, type: 3}
      propertyPath: m_RootOrder
      value: 0
      objectReference: {fileID: 0}
    - target: {fileID: 4501762900964862, guid: f27a4597efbf3694b95687e7aeef7fcc, type: 3}
      propertyPath: m_LocalEulerAnglesHint.x
      value: 0
      objectReference: {fileID: 0}
    - target: {fileID: 4501762900964862, guid: f27a4597efbf3694b95687e7aeef7fcc, type: 3}
      propertyPath: m_LocalEulerAnglesHint.y
      value: 0
      objectReference: {fileID: 0}
    - target: {fileID: 4501762900964862, guid: f27a4597efbf3694b95687e7aeef7fcc, type: 3}
      propertyPath: m_LocalEulerAnglesHint.z
      value: 0
      objectReference: {fileID: 0}
    m_RemovedComponents: []
  m_SourcePrefab: {fileID: 100100000, guid: f27a4597efbf3694b95687e7aeef7fcc, type: 3}
--- !u!4 &4919834173638434365 stripped
Transform:
  m_CorrespondingSourceObject: {fileID: 4501762900964862, guid: f27a4597efbf3694b95687e7aeef7fcc,
    type: 3}
  m_PrefabInstance: {fileID: 4920531451807067075}
  m_PrefabAsset: {fileID: 0}
