%YAML 1.1
%TAG !u! tag:unity3d.com,2011:
--- !u!1001 &3954995397106484656
PrefabInstance:
  m_ObjectHideFlags: 0
  serializedVersion: 2
  m_Modification:
    m_TransformParent: {fileID: 0}
    m_Modifications:
    - target: {fileID: 4117038937401423254, guid: eed41e99ac9e977418a85641412dd1e7,
        type: 3}
      propertyPath: m_LocalPosition.x
      value: 0
      objectReference: {fileID: 0}
    - target: {fileID: 4117038937401423254, guid: eed41e99ac9e977418a85641412dd1e7,
        type: 3}
      propertyPath: m_LocalPosition.y
      value: 0
      objectReference: {fileID: 0}
    - target: {fileID: 4117038937401423254, guid: eed41e99ac9e977418a85641412dd1e7,
        type: 3}
      propertyPath: m_LocalPosition.z
      value: 0
      objectReference: {fileID: 0}
    - target: {fileID: 4117038937401423254, guid: eed41e99ac9e977418a85641412dd1e7,
        type: 3}
      propertyPath: m_LocalRotation.x
      value: 0
      objectReference: {fileID: 0}
    - target: {fileID: 4117038937401423254, guid: eed41e99ac9e977418a85641412dd1e7,
        type: 3}
      propertyPath: m_LocalRotation.y
      value: 0
      objectReference: {fileID: 0}
    - target: {fileID: 4117038937401423254, guid: eed41e99ac9e977418a85641412dd1e7,
        type: 3}
      propertyPath: m_LocalRotation.z
      value: 0
      objectReference: {fileID: 0}
    - target: {fileID: 4117038937401423254, guid: eed41e99ac9e977418a85641412dd1e7,
        type: 3}
      propertyPath: m_LocalRotation.w
      value: 1
      objectReference: {fileID: 0}
    - target: {fileID: 4117038937401423254, guid: eed41e99ac9e977418a85641412dd1e7,
        type: 3}
      propertyPath: m_RootOrder
      value: 0
      objectReference: {fileID: 0}
    - target: {fileID: 4117038937401423254, guid: eed41e99ac9e977418a85641412dd1e7,
        type: 3}
      propertyPath: m_LocalEulerAnglesHint.x
      value: -90
      objectReference: {fileID: 0}
    - target: {fileID: 4117038937401423254, guid: eed41e99ac9e977418a85641412dd1e7,
        type: 3}
      propertyPath: m_LocalEulerAnglesHint.y
      value: 0
      objectReference: {fileID: 0}
    - target: {fileID: 4117038937401423254, guid: eed41e99ac9e977418a85641412dd1e7,
        type: 3}
      propertyPath: m_LocalEulerAnglesHint.z
      value: 0
      objectReference: {fileID: 0}
    - target: {fileID: 4117038937401423255, guid: eed41e99ac9e977418a85641412dd1e7,
        type: 3}
      propertyPath: m_Materials.Array.data[0]
      value: 
      objectReference: {fileID: 2100000, guid: b0ac8f38a6e1b994790e279802e2b7ff, type: 2}
    - target: {fileID: 4117038937401423257, guid: eed41e99ac9e977418a85641412dd1e7,
        type: 3}
      propertyPath: m_Name
      value: Hit FX Variant 1
      objectReference: {fileID: 0}
    m_RemovedComponents: []
  m_SourcePrefab: {fileID: 100100000, guid: eed41e99ac9e977418a85641412dd1e7, type: 3}
